<svg xmlns="http://www.w3.org/2000/svg" xmlns:xlink="http://www.w3.org/1999/xlink" width="4" height="14" viewBox="0 0 4 14">
  <image id="Icon:_More" data-name="Icon: More" width="4" height="14" xlink:href="data:image/png;base64,iVBORw0KGgoAAAANSUhEUgAAAAQAAAAOCAYAAAAIar0YAAAAAXNSR0IArs4c6QAAADFJREFUCB1jzK3tDWdgYJgKxCCQzQIkQJxEEA8I5jNBaAQJUpENkoEKgdiogHGwGgoA1qkRqjF35sEAAAAASUVORK5CYII="/>
</svg>
